{
    "name": "dack.utilities.editor",
    "rootNamespace": "DACK.Utilities.Editor",
    "references": [
        "GUID:6b49d44bab805764a8eda9643f7077b6"
    ],
    "includePlatforms": [
        "Editor"
    ],
    "excludePlatforms": [],
    "allowUnsafeCode": false,
    "overrideReferences": false,
    "precompiledReferences": [],
    "autoReferenced": true,
    "defineConstraints": [],
    "versionDefines": [],
    "noEngineReferences": false
}